(-3.852909530092694, 2.7425549297670795, 0),
(-1.243160997011873, 7.238089347640998, 0),
(-3.3836662915071067, 2.7876561945506655, 0),
(-1.0196588857421915, -0.27790339334295083, 0),
(2.1471769993087473, -5.065933215764136, 1),
(-4.126449427467264, 2.9355618124360308, 2),
(-4.5167441590868105, 4.865630558819259, 3),
(-4.117553821048067, 2.4023056802751266, 3),
(-9.995325762192799, 5.633015228630983, 4),
(-1.9036597735992324, -5.248991271124235, 4),
(-5.7020837143763785, 2.988622123612359, 4),
(-2.121602130856474, 4.459719207699826, 4),
(-0.8662096750193542, 6.432236042403475, 5),
(1.5055813863615628, -5.607811584028647, 5),
(-5.510828176374606, 2.672250016892445, 6),
(-3.9107309718135843, 3.831617803728634, 6),
(-1.4744467638975562, 7.2148754671254745, 6),
(-0.7494548407743782, 1.2190607055528981, 7),
(-4.9415093655785345, -3.992125239192003, 8),
(-1.124182261161921, 6.053518135182357, 9),
(-2.2817230463928246, 4.870273335660859, 9),
(-0.802828479286731, -0.09683507263290315, 9),
(-4.093090903396867, 3.6989670297856083, 10),
(-2.312857668858246, 6.821565999340985, 10),
(1.285415127498638, 2.5017937652623417, 11),
(-4.791396007263868, 2.469957578095907, 11),
(-2.312857668858246, 6.821565999340985, 13),
(-0.776141660031262, 6.156322471750658, 14),
(-0.7005290054719776, -1.0107989754441409, 15),
(-5.176130984871682, 2.706739219453354, 15),
(-2.2817230463928246, 4.870273335660859, 16),
(-2.312857668858246, 6.821565999340985, 16),
(1.4055058141510781, -5.175370096917949, 16),
(-1.193123210906277, 0.39264632180302156, 17),
(-1.711292284794972, 6.638507963062889, 18),
(-2.2839469479978005, 4.880222143174613, 18),
(-0.9696210996373029, 0.22086355605748792, 18),
(-2.116042376844741, 5.961989112346584, 19),
(-0.0811724085710172, -0.022550633353222972, 19),
(-3.4437116348329733, 2.836736982625695, 19),
(-4.317704965469036, 2.9481636363488053, 19),
(-4.445579307736771, 2.4540394845022506, 19),
(-0.2679801433635446, 0.264638314905273, 19),
(-4.848105498182978, 3.4542263499748636, 20),
(-1.3554680280476041, -0.4218294943508278, 20),
(-0.4269891080974075, 0.8224348624378344, 20),
(1.8369427254577304, -5.037413301169823, 21),
(0.42698910809599283, 0.34422878552242814, 22),
(-0.6327000065294023, -0.07693745496906129, 22),
(-0.9551657392070804, -7.277884571280645, 22),
(-5.741001992457801, 2.574088440180388, 22),
(-1.1052790975217464, 7.080234959284575, 23),
(-0.8662096750193542, 6.275044898238775, 23),
(-2.2583720795434052, 5.747758136445162, 24),
(-1.280967324290808, 7.295129168151288, 24),
(-3.139037114992982, 3.0695390979750012, 24),
(-10.135431563287195, -5.673473710672263, 25),
(1.7757854313286687, -5.251644286405102, 25),
(1.2453848986147271, -5.118330268038228, 25),
(-4.17648721357286, 3.549071654357785, 27),
(-5.119421493952572, 3.7314664694698245, 29),
(-2.0849077543793197, 5.315316653020608, 29),
(-1.514476992781467, 5.705973146991161, 30),
(-3.2213214743657796, 2.832757459271013, 30),
(-0.0811724085710172, -0.022550633353222972, 31),
(-5.103854182719862, 3.83228105759652, 31),
(-5.416312358175854, 3.458205873242684, 31),
(-0.17346432516550017, -0.11673269029626476, 31),
(-1.4588794526641382, 5.122973044814481, 33),
(-3.1067905417250725, 3.043672196358551, 33),
(-3.8362302680574953, 3.8409033578768006, 33),
(1.8280471190385335, -5.024148224598852, 34),
(-3.852909530092694, 2.7425549297670795, 35),
(-10.082057924774842, -5.733166552838977, 36),
(-2.2650437843583333, 5.743115359844668, 36),
(-1.0285544921606813, 0.2885154560926068, 36),
(-3.195746605912799, 2.5070997964539905, 36),
(-7.823685845232145, -0.8927397778977503, 37),
(-1.9347943960639462, 5.144860421028759, 38),
(2.005959247412571, -5.050678377731015, 38),
(-0.8684335766250376, -0.5544802786044376, 38),
(-0.8817769862527721, 6.519122285888552, 38),
(0.8762172322396246, -0.21091474722775885, 39),
(4.627939239320053, 3.0483149735734396, 39),
(-10.254410299137147, 5.473834314690399, 39),
(-1.8647414955171022, 6.817586476840042, 40),
(-1.4699989606883113, 6.349329321015728, 40),
(-5.4919250127351384, 2.7432181836613956, 40),
(-0.7005290054719776, -1.0008501666678977, 41),
(0.7783655616341161, -0.91993318858146, 41),
(-3.9440894958839814, 3.077498144621597, 42),
(-3.328068751389778, 2.7146982661931367, 43),
(-1.0541293606143696, -0.5650923413403497, 43),
(-0.8295152985429074, -0.5392254384203343, 44),
(-1.8191515126214584, 4.827161836372572, 44),
(-1.6156645157923177, -4.921343880840885, 45),
(-5.510828176374606, 2.672250016892445, 45),
(1.4644392066744565, -5.234399687072423, 45),
(-4.848105498182978, 3.4542263499748636, 46),
(-0.7305516771349108, -1.004829690178581, 46)